[
  {
  },
  {
    "operation": null
  },
  {
    "operation": "forecasting"
  },
  {
    "target": 1.0,
    "operation": "forecasting"
  },
  {
    "numericFeatures": [-1.4, 3.12, -4.48, -0.32],
    "discreteFeatures": ["female", "caucasian"],
    "target": 1.0,
    "operation": "forecasting"
  },
  {
    "discreteFeatures": ["female", "caucasian"],
    "target": 1.0,
    "operation": "forecasting"
  },
  {
    "numericFeatures": [-1.4, 3.12, -4.48, -0.32],
    "target": 1.0,
    "operation": "forecasting"
  },
  {
    "numericFeatures": null,
    "discreteFeatures": ["female", "caucasian"],
    "target": 1.0,
    "operation": "forecasting"
  },
  {
    "numericFeatures": [-1.4, 3.12, -4.48, -0.32],
    "discreteFeatures": null,
    "target": 1.0,
    "operation": "forecasting"
  },
  {
    "operation": "training"
  },
  {
    "target": 1.0,
    "operation": "training"
  },
  {
    "numericFeatures": null,
    "discreteFeatures": null,
    "target": 1.0,
    "operation": "training"
  },
  {
    "numericFeatures": null,
    "discreteFeatures": null,
    "target": null,
    "operation": "training"
  },
  {
    "numericFeatures": null,
    "discreteFeatures": null,
    "operation": "training"
  }
]